<svg xmlns="http://www.w3.org/2000/svg" width="791" height="383.059" viewBox="0 0 791 383.059">
  <g id="home" transform="translate(-288 -1959)">
    <path id="cloud_1_" data-name="cloud (1)" d="M46.126,14.207a10.787,10.787,0,0,0-2.139.214A8.82,8.82,0,0,0,31.635,8.15,11.773,11.773,0,0,0,9.5,16.185,9.814,9.814,0,0,0,9.8,35.808H46.126a10.8,10.8,0,1,0,0-21.6Zm0,0" transform="translate(967.074 1979.608)" fill="#a3d4f7"/>
    <path id="cloud_1_2" data-name="cloud (1)" d="M46.126,14.207a10.787,10.787,0,0,0-2.139.214A8.82,8.82,0,0,0,31.635,8.15,11.773,11.773,0,0,0,9.5,16.185,9.814,9.814,0,0,0,9.8,35.808H46.126a10.8,10.8,0,1,0,0-21.6Zm0,0" transform="translate(349.074 2122.608)" fill="#a3d4f7"/>
    <g id="Group_1740" data-name="Group 1740" transform="translate(-230 449)">
      <g id="Ellipse_195" data-name="Ellipse 195" transform="translate(885 1866)" fill="#008ef7" stroke="#1075bf" stroke-width="2">
        <circle cx="12.5" cy="12.5" r="12.5" stroke="none"/>
        <circle cx="12.5" cy="12.5" r="11.5" fill="none"/>
      </g>
      <g id="drop_1_" data-name="drop (1)" transform="translate(851.268 1872)">
        <g id="Group_45" data-name="Group 45" transform="translate(41.232 0)">
          <g id="Group_44" data-name="Group 44" transform="translate(0 0)">
            <path id="Path_36" data-name="Path 36" d="M47.3,1.479c-.31-.456-.583-.875-.838-1.257a.555.555,0,0,0-.146-.146.475.475,0,0,0-.656.146c-.237.383-.51.784-.838,1.257-1.44,2.114-3.59,5.3-3.59,7.126a4.808,4.808,0,0,0,1.421,3.408,4.869,4.869,0,0,0,3.408,1.4,4.853,4.853,0,0,0,4.829-4.829C50.891,6.764,48.74,3.593,47.3,1.479Z" transform="translate(-41.232 0)" fill="#fff"/>
          </g>
        </g>
        <g id="Group_47" data-name="Group 47" transform="translate(46.952 8.211)">
          <g id="Group_46" data-name="Group 46">
            <path id="Path_37" data-name="Path 37" d="M169.087,181.241a.471.471,0,0,0-.5.441,2.368,2.368,0,0,1-.349,1.122,2.235,2.235,0,0,1-.846.809.486.486,0,0,0,.478.846,3.187,3.187,0,0,0,1.177-1.14,3.13,3.13,0,0,0,.478-1.582A.471.471,0,0,0,169.087,181.241Z" transform="translate(-167.152 -181.24)" fill="#008ef7"/>
          </g>
        </g>
      </g>
    </g>
    <g id="Group_1739" data-name="Group 1739" transform="translate(-230 449)">
      <g id="Ellipse_196" data-name="Ellipse 196" transform="translate(915 1866)" fill="#f4a11a" stroke="#dd9012" stroke-width="2">
        <circle cx="12.5" cy="12.5" r="12.5" stroke="none"/>
        <circle cx="12.5" cy="12.5" r="11.5" fill="none"/>
      </g>
      <g id="lightning" transform="translate(903.651 1873.948)">
        <g id="Group_50" data-name="Group 50" transform="translate(20.001)">
          <path id="Path_54" data-name="Path 54" d="M26.908,4.144H25.436l2.047-3.071A.691.691,0,0,0,26.908,0H23.454a.69.69,0,0,0-.6.348L20.092,5.183a.691.691,0,0,0,.6,1.033h2.263l-2.172,3.8a.691.691,0,0,0,1.088.831L27.4,5.323a.691.691,0,0,0-.488-1.179Z" transform="translate(-20.001)" fill="#fff"/>
        </g>
      </g>
    </g>
    <g id="лого_сибирь_телематика_7_" data-name="лого сибирь телематика (7)" transform="translate(535.005 2269.485)">
      <g id="Group_19" data-name="Group 19" transform="translate(83.13 41)">
        <path id="Path_48" data-name="Path 48" d="M288.219,354.681a9.287,9.287,0,0,1-3.013-2.87,19.544,19.544,0,0,1,0-20.314,9.288,9.288,0,0,1,3.013-2.868" transform="translate(-265.102 -324.397)" fill="none" stroke="#008ef7" stroke-miterlimit="10" stroke-width="3"/>
        <path id="Path_49" data-name="Path 49" d="M306.4,353.227a10.366,10.366,0,0,1,0-15.887" transform="translate(-278.688 -328.026)" fill="none" stroke="#008ef7" stroke-miterlimit="10" stroke-width="3"/>
      </g>
      <circle id="Ellipse_5" data-name="Ellipse 5" cx="2.416" cy="2.416" r="2.416" transform="translate(112.033 55.496)" fill="#fff"/>
    </g>
    <g id="лого_сибирь_телематика_7_2" data-name="лого сибирь телематика (7)" transform="translate(829 2386) rotate(180)">
      <g id="Group_19-2" data-name="Group 19" transform="translate(83.13 41)">
        <path id="Path_48-2" data-name="Path 48" d="M288.219,354.681a9.287,9.287,0,0,1-3.013-2.87,19.544,19.544,0,0,1,0-20.314,9.288,9.288,0,0,1,3.013-2.868" transform="translate(-265.102 -324.397)" fill="none" stroke="#008ef7" stroke-miterlimit="10" stroke-width="3"/>
        <path id="Path_49-2" data-name="Path 49" d="M306.4,353.227a10.366,10.366,0,0,1,0-15.887" transform="translate(-278.688 -328.026)" fill="none" stroke="#008ef7" stroke-miterlimit="10" stroke-width="3"/>
      </g>
      <circle id="Ellipse_5-2" data-name="Ellipse 5" cx="2.416" cy="2.416" r="2.416" transform="translate(112.033 55.496)" fill="#fff"/>
    </g>
    <g id="Rectangle_3343" data-name="Rectangle 3343" transform="translate(622 1959)" fill="#a09188" stroke="#6b6c6e" stroke-width="2">
      <rect width="120" height="325" stroke="none"/>
      <rect x="1" y="1" width="118" height="323" fill="none"/>
    </g>
    <g id="Rectangle_3345" data-name="Rectangle 3345" transform="translate(417 1993)" fill="#b7a497" stroke="#6b6c6e" stroke-width="2">
      <rect width="220" height="290" stroke="none"/>
      <rect x="1" y="1" width="218" height="288" fill="none"/>
    </g>
    <g id="Rectangle_3342" data-name="Rectangle 3342" transform="translate(727 1993)" fill="#b7a497" stroke="#6b6c6e" stroke-width="2">
      <rect width="220" height="290" stroke="none"/>
      <rect x="1" y="1" width="218" height="288" fill="none"/>
    </g>
    <g id="Rectangle_3368" data-name="Rectangle 3368" transform="translate(727 2271)" fill="#767676" stroke="#6b6c6e" stroke-width="2">
      <rect width="220" height="13" stroke="none"/>
      <rect x="1" y="1" width="218" height="11" fill="none"/>
    </g>
    <g id="Rectangle_3369" data-name="Rectangle 3369" transform="translate(416 2271)" fill="#767676" stroke="#6b6c6e" stroke-width="2">
      <rect width="220" height="13" stroke="none"/>
      <rect x="1" y="1" width="218" height="11" fill="none"/>
    </g>
    <g id="Rectangle_3341" data-name="Rectangle 3341" transform="translate(852 2003)" fill="#a09289" stroke="#6b6c6e" stroke-width="2">
      <rect width="130" height="270" stroke="none"/>
      <rect x="1" y="1" width="128" height="268" fill="none"/>
    </g>
    <g id="Rectangle_3346" data-name="Rectangle 3346" transform="translate(382 2003)" fill="#a09289" stroke="#6b6c6e" stroke-width="2">
      <rect width="130" height="270" stroke="none"/>
      <rect x="1" y="1" width="128" height="268" fill="none"/>
    </g>
    <g id="Rectangle_3364" data-name="Rectangle 3364" transform="translate(382 2013)" fill="#6b6c6e" stroke="#6b6c6e" stroke-width="2">
      <rect width="120" height="250" stroke="none"/>
      <rect x="1" y="1" width="118" height="248" fill="none"/>
    </g>
    <g id="Rectangle_3379" data-name="Rectangle 3379" transform="translate(382 2013)" fill="#bebebe" stroke="#6b6c6e" stroke-width="2">
      <rect width="120" height="74" stroke="none"/>
      <rect x="1" y="1" width="118" height="72" fill="none"/>
    </g>
    <g id="Rectangle_3380" data-name="Rectangle 3380" transform="translate(382 2101)" fill="#bebebe" stroke="#6b6c6e" stroke-width="2">
      <rect width="120" height="74" stroke="none"/>
      <rect x="1" y="1" width="118" height="72" fill="none"/>
    </g>
    <g id="Rectangle_3381" data-name="Rectangle 3381" transform="translate(382 2189)" fill="#bebebe" stroke="#6b6c6e" stroke-width="2">
      <rect width="120" height="74" stroke="none"/>
      <rect x="1" y="1" width="118" height="72" fill="none"/>
    </g>
    <g id="Rectangle_3365" data-name="Rectangle 3365" transform="translate(862 2013)" fill="#6b6c6e" stroke="#6b6c6e" stroke-width="2">
      <rect width="120" height="250" stroke="none"/>
      <rect x="1" y="1" width="118" height="248" fill="none"/>
    </g>
    <g id="Rectangle_3344" data-name="Rectangle 3344" transform="translate(657 2003)" fill="#a8a8a8" stroke="#6b6c6e" stroke-width="1">
      <rect width="15" height="50" stroke="none"/>
      <rect x="0.5" y="0.5" width="14" height="49" fill="none"/>
    </g>
    <g id="Rectangle_3356" data-name="Rectangle 3356" transform="translate(657 2052)" fill="#a8a8a8" stroke="#6b6c6e" stroke-width="1">
      <rect width="15" height="50" stroke="none"/>
      <rect x="0.5" y="0.5" width="14" height="49" fill="none"/>
    </g>
    <g id="Rectangle_3359" data-name="Rectangle 3359" transform="translate(657 2101)" fill="#a8a8a8" stroke="#6b6c6e" stroke-width="1">
      <rect width="15" height="50" stroke="none"/>
      <rect x="0.5" y="0.5" width="14" height="49" fill="none"/>
    </g>
    <g id="Rectangle_3362" data-name="Rectangle 3362" transform="translate(657 2150)" fill="#a8a8a8" stroke="#6b6c6e" stroke-width="1">
      <rect width="15" height="50" stroke="none"/>
      <rect x="0.5" y="0.5" width="14" height="49" fill="none"/>
    </g>
    <g id="Rectangle_3353" data-name="Rectangle 3353" transform="translate(690 2003)" fill="#a8a8a8" stroke="#6b6c6e" stroke-width="1">
      <rect width="15" height="50" stroke="none"/>
      <rect x="0.5" y="0.5" width="14" height="49" fill="none"/>
    </g>
    <g id="Rectangle_3357" data-name="Rectangle 3357" transform="translate(690 2052)" fill="#a8a8a8" stroke="#6b6c6e" stroke-width="1">
      <rect width="15" height="50" stroke="none"/>
      <rect x="0.5" y="0.5" width="14" height="49" fill="none"/>
    </g>
    <g id="Rectangle_3360" data-name="Rectangle 3360" transform="translate(690 2101)" fill="#a8a8a8" stroke="#6b6c6e" stroke-width="1">
      <rect width="15" height="50" stroke="none"/>
      <rect x="0.5" y="0.5" width="14" height="49" fill="none"/>
    </g>
    <g id="Rectangle_3363" data-name="Rectangle 3363" transform="translate(690 2150)" fill="#a8a8a8" stroke="#6b6c6e" stroke-width="1">
      <rect width="15" height="50" stroke="none"/>
      <rect x="0.5" y="0.5" width="14" height="49" fill="none"/>
    </g>
    <g id="Rectangle_3354" data-name="Rectangle 3354" transform="translate(671 2003)" fill="#a8a8a8" stroke="#6b6c6e" stroke-width="1">
      <rect width="20" height="50" stroke="none"/>
      <rect x="0.5" y="0.5" width="19" height="49" fill="none"/>
    </g>
    <g id="Rectangle_3355" data-name="Rectangle 3355" transform="translate(671 2052)" fill="#a8a8a8" stroke="#6b6c6e" stroke-width="1">
      <rect width="20" height="50" stroke="none"/>
      <rect x="0.5" y="0.5" width="19" height="49" fill="none"/>
    </g>
    <g id="Rectangle_3358" data-name="Rectangle 3358" transform="translate(671 2101)" fill="#a8a8a8" stroke="#6b6c6e" stroke-width="1">
      <rect width="20" height="50" stroke="none"/>
      <rect x="0.5" y="0.5" width="19" height="49" fill="none"/>
    </g>
    <g id="Rectangle_3361" data-name="Rectangle 3361" transform="translate(671 2150)" fill="#a8a8a8" stroke="#6b6c6e" stroke-width="1">
      <rect width="20" height="50" stroke="none"/>
      <rect x="0.5" y="0.5" width="19" height="49" fill="none"/>
    </g>
    <g id="Rectangle_3366" data-name="Rectangle 3366" transform="translate(657 2220)" fill="#9a9a9a" stroke="#6b6c6e" stroke-width="2">
      <rect width="25" height="64" stroke="none"/>
      <rect x="1" y="1" width="23" height="62" fill="none"/>
    </g>
    <g id="Rectangle_3367" data-name="Rectangle 3367" transform="translate(680 2220)" fill="#9a9a9a" stroke="#6b6c6e" stroke-width="2">
      <rect width="25" height="64" stroke="none"/>
      <rect x="1" y="1" width="23" height="62" fill="none"/>
    </g>
    <g id="Rectangle_3347" data-name="Rectangle 3347" transform="translate(537 2025)" fill="#bebebe" stroke="#6b6c6e" stroke-width="2">
      <rect width="70" height="55" stroke="none"/>
      <rect x="1" y="1" width="68" height="53" fill="none"/>
    </g>
    <g id="Rectangle_3378" data-name="Rectangle 3378" transform="translate(757 2025)" fill="#bebebe" stroke="#6b6c6e" stroke-width="2">
      <rect width="70" height="55" stroke="none"/>
      <rect x="1" y="1" width="68" height="53" fill="none"/>
    </g>
    <g id="Rectangle_3374" data-name="Rectangle 3374" transform="translate(537 2112)" fill="#bebebe" stroke="#6b6c6e" stroke-width="2">
      <rect width="70" height="55" stroke="none"/>
      <rect x="1" y="1" width="68" height="53" fill="none"/>
    </g>
    <g id="Rectangle_3377" data-name="Rectangle 3377" transform="translate(757 2112)" fill="#bebebe" stroke="#6b6c6e" stroke-width="2">
      <rect width="70" height="55" stroke="none"/>
      <rect x="1" y="1" width="68" height="53" fill="none"/>
    </g>
    <g id="Rectangle_3375" data-name="Rectangle 3375" transform="translate(537 2199)" fill="#bebebe" stroke="#6b6c6e" stroke-width="2">
      <rect width="70" height="55" stroke="none"/>
      <rect x="1" y="1" width="68" height="53" fill="none"/>
    </g>
    <g id="Rectangle_3376" data-name="Rectangle 3376" transform="translate(757 2199)" fill="#bebebe" stroke="#6b6c6e" stroke-width="2">
      <rect width="70" height="55" stroke="none"/>
      <rect x="1" y="1" width="68" height="53" fill="none"/>
    </g>
    <line id="Line_335" data-name="Line 335" x2="66" transform="translate(539 2042.5)" fill="none" stroke="#a7a1a1" stroke-width="1"/>
    <line id="Line_362" data-name="Line 362" x2="116" transform="translate(384 2054.5)" fill="none" stroke="#a7a1a1" stroke-width="1"/>
    <line id="Line_352" data-name="Line 352" x2="66" transform="translate(759 2042.5)" fill="none" stroke="#a7a1a1" stroke-width="1"/>
    <line id="Line_340" data-name="Line 340" x2="66" transform="translate(539 2129.5)" fill="none" stroke="#a7a1a1" stroke-width="1"/>
    <line id="Line_349" data-name="Line 349" x2="66" transform="translate(759 2129.5)" fill="none" stroke="#a7a1a1" stroke-width="1"/>
    <line id="Line_342" data-name="Line 342" x2="66" transform="translate(539 2216.5)" fill="none" stroke="#a7a1a1" stroke-width="1"/>
    <line id="Line_345" data-name="Line 345" x2="66" transform="translate(759 2216.5)" fill="none" stroke="#a7a1a1" stroke-width="1"/>
    <line id="Line_336" data-name="Line 336" y1="35.528" transform="translate(558.5 2042.5)" fill="none" stroke="#a7a1a1" stroke-width="1"/>
    <line id="Line_363" data-name="Line 363" y1="70" transform="translate(411.5 2015)" fill="none" stroke="#a7a1a1" stroke-width="1"/>
    <line id="Line_365" data-name="Line 365" y1="70" transform="translate(461 2015)" fill="none" stroke="#a7a1a1" stroke-width="1"/>
    <line id="Line_364" data-name="Line 364" y1="70" transform="translate(431.5 2015)" fill="none" stroke="#a7a1a1" stroke-width="1"/>
    <line id="Line_366" data-name="Line 366" y1="70" transform="translate(481.5 2015)" fill="none" stroke="#a7a1a1" stroke-width="1"/>
    <line id="Line_350" data-name="Line 350" y1="35.528" transform="translate(778.5 2042.5)" fill="none" stroke="#a7a1a1" stroke-width="1"/>
    <line id="Line_339" data-name="Line 339" y1="35.528" transform="translate(558.5 2129.5)" fill="none" stroke="#a7a1a1" stroke-width="1"/>
    <line id="Line_346" data-name="Line 346" y1="35.528" transform="translate(778.5 2129.5)" fill="none" stroke="#a7a1a1" stroke-width="1"/>
    <line id="Line_343" data-name="Line 343" y1="35.528" transform="translate(558.5 2216.5)" fill="none" stroke="#a7a1a1" stroke-width="1"/>
    <line id="Line_347" data-name="Line 347" y1="35.528" transform="translate(778.5 2216.5)" fill="none" stroke="#a7a1a1" stroke-width="1"/>
    <line id="Line_337" data-name="Line 337" y1="35.528" transform="translate(585.5 2042.5)" fill="none" stroke="#a7a1a1" stroke-width="1"/>
    <line id="Line_351" data-name="Line 351" y1="35.528" transform="translate(805.5 2042.5)" fill="none" stroke="#a7a1a1" stroke-width="1"/>
    <line id="Line_338" data-name="Line 338" y1="35.528" transform="translate(585.5 2129.5)" fill="none" stroke="#a7a1a1" stroke-width="1"/>
    <line id="Line_348" data-name="Line 348" y1="35.528" transform="translate(805.5 2129.5)" fill="none" stroke="#a7a1a1" stroke-width="1"/>
    <line id="Line_341" data-name="Line 341" y1="35.528" transform="translate(585.5 2216.5)" fill="none" stroke="#a7a1a1" stroke-width="1"/>
    <line id="Line_344" data-name="Line 344" y1="35.528" transform="translate(805.5 2216.5)" fill="none" stroke="#a7a1a1" stroke-width="1"/>
    <line id="Line_353" data-name="Line 353" x2="10" y2="10" transform="translate(617.5 2005.5)" fill="none" stroke="#707070" stroke-linecap="round" stroke-width="1"/>
    <line id="Line_356" data-name="Line 356" x2="10" y2="10" transform="translate(835.5 2254.5)" fill="none" stroke="#707070" stroke-linecap="round" stroke-width="1"/>
    <line id="Line_359" data-name="Line 359" x2="10" y2="10" transform="translate(874.5 2024.5)" fill="none" stroke="#a7a6a6" stroke-linecap="round" stroke-width="1"/>
    <line id="Line_392" data-name="Line 392" x2="10" y2="10" transform="translate(874.5 2112.5)" fill="none" stroke="#a7a6a6" stroke-linecap="round" stroke-width="1"/>
    <line id="Line_355" data-name="Line 355" x2="7" y2="7" transform="translate(620.5 2003.5)" fill="none" stroke="#707070" stroke-linecap="round" stroke-width="1"/>
    <line id="Line_357" data-name="Line 357" x2="7" y2="7" transform="translate(838.5 2252.5)" fill="none" stroke="#707070" stroke-linecap="round" stroke-width="1"/>
    <line id="Line_360" data-name="Line 360" x2="7" y2="7" transform="translate(877.5 2022.5)" fill="none" stroke="#a7a6a6" stroke-linecap="round" stroke-width="1"/>
    <line id="Line_393" data-name="Line 393" x2="7" y2="7" transform="translate(877.5 2110.5)" fill="none" stroke="#a7a6a6" stroke-linecap="round" stroke-width="1"/>
    <line id="Line_354" data-name="Line 354" x2="3" y2="3" transform="translate(617.5 2010.5)" fill="none" stroke="#707070" stroke-linecap="round" stroke-width="1"/>
    <line id="Line_358" data-name="Line 358" x2="3" y2="3" transform="translate(835.5 2259.5)" fill="none" stroke="#707070" stroke-linecap="round" stroke-width="1"/>
    <line id="Line_361" data-name="Line 361" x2="3" y2="3" transform="translate(874.5 2029.5)" fill="none" stroke="#a7a6a6" stroke-linecap="round" stroke-width="1"/>
    <line id="Line_394" data-name="Line 394" x2="3" y2="3" transform="translate(874.5 2117.5)" fill="none" stroke="#a7a6a6" stroke-linecap="round" stroke-width="1"/>
    <g id="Rectangle_3382" data-name="Rectangle 3382" transform="translate(382 2101)" fill="#bebebe" stroke="#6b6c6e" stroke-width="2">
      <rect width="120" height="74" stroke="none"/>
      <rect x="1" y="1" width="118" height="72" fill="none"/>
    </g>
    <g id="Rectangle_3383" data-name="Rectangle 3383" transform="translate(382 2189)" fill="#bebebe" stroke="#6b6c6e" stroke-width="2">
      <rect width="120" height="74" stroke="none"/>
      <rect x="1" y="1" width="118" height="72" fill="none"/>
    </g>
    <g id="Rectangle_3384" data-name="Rectangle 3384" transform="translate(862 2189)" fill="#bebebe" stroke="#6b6c6e" stroke-width="2">
      <rect width="120" height="74" stroke="none"/>
      <rect x="1" y="1" width="118" height="72" fill="none"/>
    </g>
    <g id="Rectangle_3385" data-name="Rectangle 3385" transform="translate(862 2013)" fill="#bebebe" stroke="#6b6c6e" stroke-width="2">
      <rect width="120" height="74" stroke="none"/>
      <rect x="1" y="1" width="118" height="72" fill="none"/>
    </g>
    <g id="Rectangle_3386" data-name="Rectangle 3386" transform="translate(862 2101)" fill="#bebebe" stroke="#6b6c6e" stroke-width="2">
      <rect width="120" height="74" stroke="none"/>
      <rect x="1" y="1" width="118" height="72" fill="none"/>
    </g>
    <line id="Line_367" data-name="Line 367" x2="116" transform="translate(384 2142.5)" fill="none" stroke="#a7a1a1" stroke-width="1"/>
    <line id="Line_372" data-name="Line 372" x2="116" transform="translate(384 2230.5)" fill="none" stroke="#a7a1a1" stroke-width="1"/>
    <line id="Line_377" data-name="Line 377" x2="116" transform="translate(864 2230.5)" fill="none" stroke="#a7a1a1" stroke-width="1"/>
    <line id="Line_382" data-name="Line 382" x2="116" transform="translate(864 2054.5)" fill="none" stroke="#a7a1a1" stroke-width="1"/>
    <line id="Line_389" data-name="Line 389" x2="116" transform="translate(864 2142.5)" fill="none" stroke="#a7a1a1" stroke-width="1"/>
    <line id="Line_368" data-name="Line 368" y1="70" transform="translate(411.5 2103)" fill="none" stroke="#a7a1a1" stroke-width="1"/>
    <line id="Line_373" data-name="Line 373" y1="70" transform="translate(411.5 2191)" fill="none" stroke="#a7a1a1" stroke-width="1"/>
    <line id="Line_378" data-name="Line 378" y1="70" transform="translate(891.5 2191)" fill="none" stroke="#a7a1a1" stroke-width="1"/>
    <line id="Line_383" data-name="Line 383" y1="70" transform="translate(891.5 2015)" fill="none" stroke="#a7a1a1" stroke-width="1"/>
    <line id="Line_391" data-name="Line 391" y1="70" transform="translate(891.5 2103)" fill="none" stroke="#a7a1a1" stroke-width="1"/>
    <line id="Line_370" data-name="Line 370" y1="70" transform="translate(461 2103)" fill="none" stroke="#a7a1a1" stroke-width="1"/>
    <line id="Line_375" data-name="Line 375" y1="70" transform="translate(461 2191)" fill="none" stroke="#a7a1a1" stroke-width="1"/>
    <line id="Line_380" data-name="Line 380" y1="70" transform="translate(941 2191)" fill="none" stroke="#a7a1a1" stroke-width="1"/>
    <line id="Line_385" data-name="Line 385" y1="70" transform="translate(941 2015)" fill="none" stroke="#a7a1a1" stroke-width="1"/>
    <line id="Line_388" data-name="Line 388" y1="70" transform="translate(941 2103)" fill="none" stroke="#a7a1a1" stroke-width="1"/>
    <line id="Line_369" data-name="Line 369" y1="70" transform="translate(431.5 2103)" fill="none" stroke="#a7a1a1" stroke-width="1"/>
    <line id="Line_374" data-name="Line 374" y1="70" transform="translate(431.5 2191)" fill="none" stroke="#a7a1a1" stroke-width="1"/>
    <line id="Line_379" data-name="Line 379" y1="70" transform="translate(911.5 2191)" fill="none" stroke="#a7a1a1" stroke-width="1"/>
    <line id="Line_384" data-name="Line 384" y1="70" transform="translate(911.5 2015)" fill="none" stroke="#a7a1a1" stroke-width="1"/>
    <line id="Line_390" data-name="Line 390" y1="70" transform="translate(911.5 2103)" fill="none" stroke="#a7a1a1" stroke-width="1"/>
    <line id="Line_371" data-name="Line 371" y1="70" transform="translate(481.5 2103)" fill="none" stroke="#a7a1a1" stroke-width="1"/>
    <line id="Line_376" data-name="Line 376" y1="70" transform="translate(481.5 2191)" fill="none" stroke="#a7a1a1" stroke-width="1"/>
    <line id="Line_381" data-name="Line 381" y1="70" transform="translate(961.5 2191)" fill="none" stroke="#a7a1a1" stroke-width="1"/>
    <line id="Line_386" data-name="Line 386" y1="70" transform="translate(961.5 2015)" fill="none" stroke="#a7a1a1" stroke-width="1"/>
    <line id="Line_387" data-name="Line 387" y1="70" transform="translate(961.5 2103)" fill="none" stroke="#a7a1a1" stroke-width="1"/>
    <path id="Path_6909" data-name="Path 6909" d="M8254.872,2345.975l23.823,70.148h-45.714Z" transform="translate(-7200 -151)" fill="#99c999"/>
    <path id="Path_6910" data-name="Path 6910" d="M8254.872,2345.975l23.823,70.148h-45.714Z" transform="translate(-7915 -151)" fill="#99c999"/>
    <circle id="Ellipse_194" data-name="Ellipse 194" cx="25" cy="25" r="25" transform="translate(1003 2221)" fill="#d6d9e6"/>
    <circle id="Ellipse_197" data-name="Ellipse 197" cx="25" cy="25" r="25" transform="translate(288 2221)" fill="#d6d9e6"/>
    <line id="Line_118" data-name="Line 118" y1="23" transform="translate(1055.5 2260.5)" fill="none" stroke="#98867a" stroke-linecap="round" stroke-width="2"/>
    <line id="Line_121" data-name="Line 121" y1="23" transform="translate(340.5 2260.5)" fill="none" stroke="#98867a" stroke-linecap="round" stroke-width="2"/>
    <line id="Line_115" data-name="Line 115" y1="23" transform="translate(1028.5 2260.5)" fill="none" stroke="#98867a" stroke-linecap="round" stroke-width="2"/>
    <line id="Line_124" data-name="Line 124" y1="23" transform="translate(313.5 2260.5)" fill="none" stroke="#98867a" stroke-linecap="round" stroke-width="2"/>
    <line id="Line_117" data-name="Line 117" x2="7" y2="7" transform="translate(1048.5 2253.5)" fill="none" stroke="#98867a" stroke-linecap="round" stroke-width="1"/>
    <line id="Line_122" data-name="Line 122" x2="7" y2="7" transform="translate(333.5 2253.5)" fill="none" stroke="#98867a" stroke-linecap="round" stroke-width="1"/>
    <line id="Line_114" data-name="Line 114" x2="7" y2="7" transform="translate(1021.5 2253.5)" fill="none" stroke="#98867a" stroke-linecap="round" stroke-width="1"/>
    <line id="Line_125" data-name="Line 125" x2="7" y2="7" transform="translate(306.5 2253.5)" fill="none" stroke="#98867a" stroke-linecap="round" stroke-width="1"/>
    <line id="Line_119" data-name="Line 119" x2="7" y2="7" transform="translate(1062.5 2253.5) rotate(90)" fill="none" stroke="#98867a" stroke-linecap="round" stroke-width="1"/>
    <line id="Line_120" data-name="Line 120" x2="7" y2="7" transform="translate(347.5 2253.5) rotate(90)" fill="none" stroke="#98867a" stroke-linecap="round" stroke-width="1"/>
    <line id="Line_116" data-name="Line 116" x2="7" y2="7" transform="translate(1035.5 2253.5) rotate(90)" fill="none" stroke="#98867a" stroke-linecap="round" stroke-width="1"/>
    <line id="Line_123" data-name="Line 123" x2="7" y2="7" transform="translate(320.5 2253.5) rotate(90)" fill="none" stroke="#98867a" stroke-linecap="round" stroke-width="1"/>
    <rect id="Rectangle_3190" data-name="Rectangle 3190" width="791" height="10" rx="5" transform="translate(288 2284)" fill="#abb4c3"/>
    <g id="Group_2037" data-name="Group 2037" transform="translate(-276 159)">
      <g id="Ellipse_195-2" data-name="Ellipse 195" transform="translate(885 1866)" fill="#008ef7" stroke="#1075bf" stroke-width="2">
        <circle cx="12.5" cy="12.5" r="12.5" stroke="none"/>
        <circle cx="12.5" cy="12.5" r="11.5" fill="none"/>
      </g>
      <g id="drop_1_2" data-name="drop (1)" transform="translate(851.268 1872)">
        <g id="Group_45-2" data-name="Group 45" transform="translate(41.232 0)">
          <g id="Group_44-2" data-name="Group 44" transform="translate(0 0)">
            <path id="Path_36-2" data-name="Path 36" d="M47.3,1.479c-.31-.456-.583-.875-.838-1.257a.555.555,0,0,0-.146-.146.475.475,0,0,0-.656.146c-.237.383-.51.784-.838,1.257-1.44,2.114-3.59,5.3-3.59,7.126a4.808,4.808,0,0,0,1.421,3.408,4.869,4.869,0,0,0,3.408,1.4,4.853,4.853,0,0,0,4.829-4.829C50.891,6.764,48.74,3.593,47.3,1.479Z" transform="translate(-41.232 0)" fill="#fff"/>
          </g>
        </g>
        <g id="Group_47-2" data-name="Group 47" transform="translate(46.952 8.211)">
          <g id="Group_46-2" data-name="Group 46">
            <path id="Path_37-2" data-name="Path 37" d="M169.087,181.241a.471.471,0,0,0-.5.441,2.368,2.368,0,0,1-.349,1.122,2.235,2.235,0,0,1-.846.809.486.486,0,0,0,.478.846,3.187,3.187,0,0,0,1.177-1.14,3.13,3.13,0,0,0,.478-1.582A.471.471,0,0,0,169.087,181.241Z" transform="translate(-167.152 -181.24)" fill="#008ef7"/>
          </g>
        </g>
      </g>
    </g>
    <g id="Group_2058" data-name="Group 2058" transform="translate(-155 159)">
      <g id="Ellipse_195-3" data-name="Ellipse 195" transform="translate(885 1866)" fill="#008ef7" stroke="#1075bf" stroke-width="2">
        <circle cx="12.5" cy="12.5" r="12.5" stroke="none"/>
        <circle cx="12.5" cy="12.5" r="11.5" fill="none"/>
      </g>
      <g id="drop_1_3" data-name="drop (1)" transform="translate(851.268 1872)">
        <g id="Group_45-3" data-name="Group 45" transform="translate(41.232 0)">
          <g id="Group_44-3" data-name="Group 44" transform="translate(0 0)">
            <path id="Path_36-3" data-name="Path 36" d="M47.3,1.479c-.31-.456-.583-.875-.838-1.257a.555.555,0,0,0-.146-.146.475.475,0,0,0-.656.146c-.237.383-.51.784-.838,1.257-1.44,2.114-3.59,5.3-3.59,7.126a4.808,4.808,0,0,0,1.421,3.408,4.869,4.869,0,0,0,3.408,1.4,4.853,4.853,0,0,0,4.829-4.829C50.891,6.764,48.74,3.593,47.3,1.479Z" transform="translate(-41.232 0)" fill="#fff"/>
          </g>
        </g>
        <g id="Group_47-3" data-name="Group 47" transform="translate(46.952 8.211)">
          <g id="Group_46-3" data-name="Group 46">
            <path id="Path_37-3" data-name="Path 37" d="M169.087,181.241a.471.471,0,0,0-.5.441,2.368,2.368,0,0,1-.349,1.122,2.235,2.235,0,0,1-.846.809.486.486,0,0,0,.478.846,3.187,3.187,0,0,0,1.177-1.14,3.13,3.13,0,0,0,.478-1.582A.471.471,0,0,0,169.087,181.241Z" transform="translate(-167.152 -181.24)" fill="#008ef7"/>
          </g>
        </g>
      </g>
    </g>
    <g id="Group_2050" data-name="Group 2050" transform="translate(-276 245)">
      <g id="Ellipse_195-4" data-name="Ellipse 195" transform="translate(885 1866)" fill="#008ef7" stroke="#1075bf" stroke-width="2">
        <circle cx="12.5" cy="12.5" r="12.5" stroke="none"/>
        <circle cx="12.5" cy="12.5" r="11.5" fill="none"/>
      </g>
      <g id="drop_1_4" data-name="drop (1)" transform="translate(851.268 1872)">
        <g id="Group_45-4" data-name="Group 45" transform="translate(41.232 0)">
          <g id="Group_44-4" data-name="Group 44" transform="translate(0 0)">
            <path id="Path_36-4" data-name="Path 36" d="M47.3,1.479c-.31-.456-.583-.875-.838-1.257a.555.555,0,0,0-.146-.146.475.475,0,0,0-.656.146c-.237.383-.51.784-.838,1.257-1.44,2.114-3.59,5.3-3.59,7.126a4.808,4.808,0,0,0,1.421,3.408,4.869,4.869,0,0,0,3.408,1.4,4.853,4.853,0,0,0,4.829-4.829C50.891,6.764,48.74,3.593,47.3,1.479Z" transform="translate(-41.232 0)" fill="#fff"/>
          </g>
        </g>
        <g id="Group_47-4" data-name="Group 47" transform="translate(46.952 8.211)">
          <g id="Group_46-4" data-name="Group 46">
            <path id="Path_37-4" data-name="Path 37" d="M169.087,181.241a.471.471,0,0,0-.5.441,2.368,2.368,0,0,1-.349,1.122,2.235,2.235,0,0,1-.846.809.486.486,0,0,0,.478.846,3.187,3.187,0,0,0,1.177-1.14,3.13,3.13,0,0,0,.478-1.582A.471.471,0,0,0,169.087,181.241Z" transform="translate(-167.152 -181.24)" fill="#008ef7"/>
          </g>
        </g>
      </g>
    </g>
    <g id="Group_2056" data-name="Group 2056" transform="translate(-155 245)">
      <g id="Ellipse_195-5" data-name="Ellipse 195" transform="translate(885 1866)" fill="#008ef7" stroke="#1075bf" stroke-width="2">
        <circle cx="12.5" cy="12.5" r="12.5" stroke="none"/>
        <circle cx="12.5" cy="12.5" r="11.5" fill="none"/>
      </g>
      <g id="drop_1_5" data-name="drop (1)" transform="translate(851.268 1872)">
        <g id="Group_45-5" data-name="Group 45" transform="translate(41.232 0)">
          <g id="Group_44-5" data-name="Group 44" transform="translate(0 0)">
            <path id="Path_36-5" data-name="Path 36" d="M47.3,1.479c-.31-.456-.583-.875-.838-1.257a.555.555,0,0,0-.146-.146.475.475,0,0,0-.656.146c-.237.383-.51.784-.838,1.257-1.44,2.114-3.59,5.3-3.59,7.126a4.808,4.808,0,0,0,1.421,3.408,4.869,4.869,0,0,0,3.408,1.4,4.853,4.853,0,0,0,4.829-4.829C50.891,6.764,48.74,3.593,47.3,1.479Z" transform="translate(-41.232 0)" fill="#fff"/>
          </g>
        </g>
        <g id="Group_47-5" data-name="Group 47" transform="translate(46.952 8.211)">
          <g id="Group_46-5" data-name="Group 46">
            <path id="Path_37-5" data-name="Path 37" d="M169.087,181.241a.471.471,0,0,0-.5.441,2.368,2.368,0,0,1-.349,1.122,2.235,2.235,0,0,1-.846.809.486.486,0,0,0,.478.846,3.187,3.187,0,0,0,1.177-1.14,3.13,3.13,0,0,0,.478-1.582A.471.471,0,0,0,169.087,181.241Z" transform="translate(-167.152 -181.24)" fill="#008ef7"/>
          </g>
        </g>
      </g>
    </g>
    <g id="Group_2051" data-name="Group 2051" transform="translate(-276 332)">
      <g id="Ellipse_195-6" data-name="Ellipse 195" transform="translate(885 1866)" fill="#008ef7" stroke="#1075bf" stroke-width="2">
        <circle cx="12.5" cy="12.5" r="12.5" stroke="none"/>
        <circle cx="12.5" cy="12.5" r="11.5" fill="none"/>
      </g>
      <g id="drop_1_6" data-name="drop (1)" transform="translate(851.268 1872)">
        <g id="Group_45-6" data-name="Group 45" transform="translate(41.232 0)">
          <g id="Group_44-6" data-name="Group 44" transform="translate(0 0)">
            <path id="Path_36-6" data-name="Path 36" d="M47.3,1.479c-.31-.456-.583-.875-.838-1.257a.555.555,0,0,0-.146-.146.475.475,0,0,0-.656.146c-.237.383-.51.784-.838,1.257-1.44,2.114-3.59,5.3-3.59,7.126a4.808,4.808,0,0,0,1.421,3.408,4.869,4.869,0,0,0,3.408,1.4,4.853,4.853,0,0,0,4.829-4.829C50.891,6.764,48.74,3.593,47.3,1.479Z" transform="translate(-41.232 0)" fill="#fff"/>
          </g>
        </g>
        <g id="Group_47-6" data-name="Group 47" transform="translate(46.952 8.211)">
          <g id="Group_46-6" data-name="Group 46">
            <path id="Path_37-6" data-name="Path 37" d="M169.087,181.241a.471.471,0,0,0-.5.441,2.368,2.368,0,0,1-.349,1.122,2.235,2.235,0,0,1-.846.809.486.486,0,0,0,.478.846,3.187,3.187,0,0,0,1.177-1.14,3.13,3.13,0,0,0,.478-1.582A.471.471,0,0,0,169.087,181.241Z" transform="translate(-167.152 -181.24)" fill="#008ef7"/>
          </g>
        </g>
      </g>
    </g>
    <g id="Group_2054" data-name="Group 2054" transform="translate(-155 332)">
      <g id="Ellipse_195-7" data-name="Ellipse 195" transform="translate(885 1866)" fill="#008ef7" stroke="#1075bf" stroke-width="2">
        <circle cx="12.5" cy="12.5" r="12.5" stroke="none"/>
        <circle cx="12.5" cy="12.5" r="11.5" fill="none"/>
      </g>
      <g id="drop_1_7" data-name="drop (1)" transform="translate(851.268 1872)">
        <g id="Group_45-7" data-name="Group 45" transform="translate(41.232 0)">
          <g id="Group_44-7" data-name="Group 44" transform="translate(0 0)">
            <path id="Path_36-7" data-name="Path 36" d="M47.3,1.479c-.31-.456-.583-.875-.838-1.257a.555.555,0,0,0-.146-.146.475.475,0,0,0-.656.146c-.237.383-.51.784-.838,1.257-1.44,2.114-3.59,5.3-3.59,7.126a4.808,4.808,0,0,0,1.421,3.408,4.869,4.869,0,0,0,3.408,1.4,4.853,4.853,0,0,0,4.829-4.829C50.891,6.764,48.74,3.593,47.3,1.479Z" transform="translate(-41.232 0)" fill="#fff"/>
          </g>
        </g>
        <g id="Group_47-7" data-name="Group 47" transform="translate(46.952 8.211)">
          <g id="Group_46-7" data-name="Group 46">
            <path id="Path_37-7" data-name="Path 37" d="M169.087,181.241a.471.471,0,0,0-.5.441,2.368,2.368,0,0,1-.349,1.122,2.235,2.235,0,0,1-.846.809.486.486,0,0,0,.478.846,3.187,3.187,0,0,0,1.177-1.14,3.13,3.13,0,0,0,.478-1.582A.471.471,0,0,0,169.087,181.241Z" transform="translate(-167.152 -181.24)" fill="#008ef7"/>
          </g>
        </g>
      </g>
    </g>
    <g id="Group_2038" data-name="Group 2038" transform="translate(-306 190)">
      <g id="Ellipse_196-2" data-name="Ellipse 196" transform="translate(915 1866)" fill="#f4a11a" stroke="#dd9012" stroke-width="2">
        <circle cx="12.5" cy="12.5" r="12.5" stroke="none"/>
        <circle cx="12.5" cy="12.5" r="11.5" fill="none"/>
      </g>
      <g id="lightning-2" data-name="lightning" transform="translate(903.651 1873.948)">
        <g id="Group_50-2" data-name="Group 50" transform="translate(20.001)">
          <path id="Path_54-2" data-name="Path 54" d="M26.908,4.144H25.436l2.047-3.071A.691.691,0,0,0,26.908,0H23.454a.69.69,0,0,0-.6.348L20.092,5.183a.691.691,0,0,0,.6,1.033h2.263l-2.172,3.8a.691.691,0,0,0,1.088.831L27.4,5.323a.691.691,0,0,0-.488-1.179Z" transform="translate(-20.001)" fill="#fff"/>
        </g>
      </g>
    </g>
    <g id="Group_2057" data-name="Group 2057" transform="translate(-185 190)">
      <g id="Ellipse_196-3" data-name="Ellipse 196" transform="translate(915 1866)" fill="#f4a11a" stroke="#dd9012" stroke-width="2">
        <circle cx="12.5" cy="12.5" r="12.5" stroke="none"/>
        <circle cx="12.5" cy="12.5" r="11.5" fill="none"/>
      </g>
      <g id="lightning-3" data-name="lightning" transform="translate(903.651 1873.948)">
        <g id="Group_50-3" data-name="Group 50" transform="translate(20.001)">
          <path id="Path_54-3" data-name="Path 54" d="M26.908,4.144H25.436l2.047-3.071A.691.691,0,0,0,26.908,0H23.454a.69.69,0,0,0-.6.348L20.092,5.183a.691.691,0,0,0,.6,1.033h2.263l-2.172,3.8a.691.691,0,0,0,1.088.831L27.4,5.323a.691.691,0,0,0-.488-1.179Z" transform="translate(-20.001)" fill="#fff"/>
        </g>
      </g>
    </g>
    <g id="Group_2049" data-name="Group 2049" transform="translate(-306 276)">
      <g id="Ellipse_196-4" data-name="Ellipse 196" transform="translate(915 1866)" fill="#f4a11a" stroke="#dd9012" stroke-width="2">
        <circle cx="12.5" cy="12.5" r="12.5" stroke="none"/>
        <circle cx="12.5" cy="12.5" r="11.5" fill="none"/>
      </g>
      <g id="lightning-4" data-name="lightning" transform="translate(903.651 1873.948)">
        <g id="Group_50-4" data-name="Group 50" transform="translate(20.001)">
          <path id="Path_54-4" data-name="Path 54" d="M26.908,4.144H25.436l2.047-3.071A.691.691,0,0,0,26.908,0H23.454a.69.69,0,0,0-.6.348L20.092,5.183a.691.691,0,0,0,.6,1.033h2.263l-2.172,3.8a.691.691,0,0,0,1.088.831L27.4,5.323a.691.691,0,0,0-.488-1.179Z" transform="translate(-20.001)" fill="#fff"/>
        </g>
      </g>
    </g>
    <g id="Group_2055" data-name="Group 2055" transform="translate(-185 276)">
      <g id="Ellipse_196-5" data-name="Ellipse 196" transform="translate(915 1866)" fill="#f4a11a" stroke="#dd9012" stroke-width="2">
        <circle cx="12.5" cy="12.5" r="12.5" stroke="none"/>
        <circle cx="12.5" cy="12.5" r="11.5" fill="none"/>
      </g>
      <g id="lightning-5" data-name="lightning" transform="translate(903.651 1873.948)">
        <g id="Group_50-5" data-name="Group 50" transform="translate(20.001)">
          <path id="Path_54-5" data-name="Path 54" d="M26.908,4.144H25.436l2.047-3.071A.691.691,0,0,0,26.908,0H23.454a.69.69,0,0,0-.6.348L20.092,5.183a.691.691,0,0,0,.6,1.033h2.263l-2.172,3.8a.691.691,0,0,0,1.088.831L27.4,5.323a.691.691,0,0,0-.488-1.179Z" transform="translate(-20.001)" fill="#fff"/>
        </g>
      </g>
    </g>
    <g id="Group_2052" data-name="Group 2052" transform="translate(-306 363)">
      <g id="Ellipse_196-6" data-name="Ellipse 196" transform="translate(915 1866)" fill="#f4a11a" stroke="#dd9012" stroke-width="2">
        <circle cx="12.5" cy="12.5" r="12.5" stroke="none"/>
        <circle cx="12.5" cy="12.5" r="11.5" fill="none"/>
      </g>
      <g id="lightning-6" data-name="lightning" transform="translate(903.651 1873.948)">
        <g id="Group_50-6" data-name="Group 50" transform="translate(20.001)">
          <path id="Path_54-6" data-name="Path 54" d="M26.908,4.144H25.436l2.047-3.071A.691.691,0,0,0,26.908,0H23.454a.69.69,0,0,0-.6.348L20.092,5.183a.691.691,0,0,0,.6,1.033h2.263l-2.172,3.8a.691.691,0,0,0,1.088.831L27.4,5.323a.691.691,0,0,0-.488-1.179Z" transform="translate(-20.001)" fill="#fff"/>
        </g>
      </g>
    </g>
    <g id="Group_2053" data-name="Group 2053" transform="translate(-185 363)">
      <g id="Ellipse_196-7" data-name="Ellipse 196" transform="translate(915 1866)" fill="#f4a11a" stroke="#dd9012" stroke-width="2">
        <circle cx="12.5" cy="12.5" r="12.5" stroke="none"/>
        <circle cx="12.5" cy="12.5" r="11.5" fill="none"/>
      </g>
      <g id="lightning-7" data-name="lightning" transform="translate(903.651 1873.948)">
        <g id="Group_50-7" data-name="Group 50" transform="translate(20.001)">
          <path id="Path_54-7" data-name="Path 54" d="M26.908,4.144H25.436l2.047-3.071A.691.691,0,0,0,26.908,0H23.454a.69.69,0,0,0-.6.348L20.092,5.183a.691.691,0,0,0,.6,1.033h2.263l-2.172,3.8a.691.691,0,0,0,1.088.831L27.4,5.323a.691.691,0,0,0-.488-1.179Z" transform="translate(-20.001)" fill="#fff"/>
        </g>
      </g>
    </g>
    <line id="Line_396" data-name="Line 396" y1="20.5" transform="translate(621.5 2086)" fill="none" stroke="#fff" stroke-linecap="round" stroke-width="2" stroke-dasharray="6"/>
    <line id="Line_399" data-name="Line 399" y1="20.5" transform="translate(742.5 2086)" fill="none" stroke="#fff" stroke-linecap="round" stroke-width="2" stroke-dasharray="6"/>
    <line id="Line_397" data-name="Line 397" y1="20.5" transform="translate(621.5 2173)" fill="none" stroke="#fff" stroke-linecap="round" stroke-width="2" stroke-dasharray="6"/>
    <line id="Line_403" data-name="Line 403" y1="30" transform="translate(621.5 2259)" fill="none" stroke="#fff" stroke-linecap="round" stroke-width="2" stroke-dasharray="6"/>
    <line id="Line_406" data-name="Line 406" y1="20.5" transform="translate(621.5 2294)" fill="none" stroke="#767676" stroke-linecap="round" stroke-width="2" stroke-dasharray="6"/>
    <line id="Line_398" data-name="Line 398" y1="20.5" transform="translate(742.5 2173)" fill="none" stroke="#fff" stroke-linecap="round" stroke-width="2" stroke-dasharray="6"/>
    <line id="Line_404" data-name="Line 404" y1="30" transform="translate(742.5 2259)" fill="none" stroke="#fff" stroke-linecap="round" stroke-width="2" stroke-dasharray="6"/>
    <line id="Line_405" data-name="Line 405" y1="20.5" transform="translate(742.5 2294)" fill="none" stroke="#767676" stroke-linecap="round" stroke-width="2" stroke-dasharray="6"/>
    <line id="Line_401" data-name="Line 401" x2="10" y2="10" transform="translate(968.5 2027.5)" fill="none" stroke="#707070" stroke-linecap="round" stroke-width="1"/>
    <line id="Line_402" data-name="Line 402" x2="7" y2="7" transform="translate(971.5 2025.5)" fill="none" stroke="#707070" stroke-linecap="round" stroke-width="1"/>
    <line id="Line_400" data-name="Line 400" x2="3" y2="3" transform="translate(968.5 2032.5)" fill="none" stroke="#707070" stroke-linecap="round" stroke-width="1"/>
  </g>
</svg>
