<svg xmlns="http://www.w3.org/2000/svg" width="23" height="23.001" viewBox="0 0 23 23.001">
  <path id="phone" d="M-2144.5,23a11.425,11.425,0,0,1-8.132-3.368A11.425,11.425,0,0,1-2156,11.5a11.425,11.425,0,0,1,3.368-8.132A11.425,11.425,0,0,1-2144.5,0a11.424,11.424,0,0,1,8.132,3.368A11.425,11.425,0,0,1-2133,11.5a11.425,11.425,0,0,1-3.368,8.132A11.424,11.424,0,0,1-2144.5,23Zm-4.682-17.792h0a5.429,5.429,0,0,0-1.6,2.472,5.407,5.407,0,0,0,.96,2.914,18.615,18.615,0,0,0,2.885,3.64c2.306,2.305,4.867,3.854,6.373,3.854.066,0,.127,0,.183-.008,1.089-.1,2.458-1.584,2.472-1.6a21.128,21.128,0,0,0-1.476-1.659,21.245,21.245,0,0,0-1.658-1.475l-1.251,1.25-5-5,1.25-1.25a21.126,21.126,0,0,0-1.476-1.659,21.444,21.444,0,0,0-1.659-1.475Z" transform="translate(2156)" fill="#fff"/>
</svg>
